100	-875.26
200	-737.62
300	-442.32
400	-494.66
500	-214.56
600	-512.5
700	-330.42
800	-250.26
900	-251.17
1000	-389.94
1100	-331.53
1200	-273.84
1300	-298.61
1400	-278.42
1500	-189.6
1600	-217.1
1700	-236.61
1800	-181.94
1900	-205.09
2000	-340.06
2100	-197.78
2200	-312.39
2300	-155.75
2400	-229.99
2500	-221.49
2600	-217.94
2700	-142.45
2800	-124.09
2900	-173.19
3000	-217.75
3100	-178.93
3200	-134.72
3300	-115.54
3400	-212.86
3500	-182.55
3600	-180.38
3700	-122.36
3800	-152.01
3900	-158.8
4000	-126.34
4100	-194.7
4200	-132.11
4300	-122.69
4400	-137.37
4500	-112.4
4600	-82.71
4700	-88.03
4800	-118.99
4900	-75.57
5000	-90.94
5100	-93.3
5200	-101.57
5300	-146.08
5400	-146.15
5500	-98.16
5600	-90.66
5700	-84.2
5800	-95.02
5900	-98.4
6000	-78.09
6100	-93.64
6200	-83.3
6300	-98.19
6400	-99.21
6500	-75.74
6600	-93.78
6700	-87.93
6800	-111.81
6900	-99.19
7000	-90.07
7100	-84.62
7200	-86.42
7300	-77.75
7400	-100.98
7500	-93.23
7600	-74.47
7700	-68.27
7800	-74.82
7900	-82.13
8000	-86.87
8100	-79.3
8200	-64.27
8300	-65.9
8400	-68.15
8500	-68.71
8600	-71.36
8700	-88.66
8800	-92.53
8900	-66.43
9000	-83.5
9100	-61.05
9200	-63.94
9300	-73.19
9400	-73.42
9500	-71.66
9600	-53.86
9700	-67.89
9800	-58.32
9900	-78.89
10000	-60.55
10100	-60.94
10200	-60.0
10300	-57.24
10400	-56.59
10500	-57.44
10600	-62.07
10700	-54.97
10800	-59.86
10900	-64.75
11000	-73.95
11100	-59.78
11200	-66.83
11300	-70.53
11400	-58.65
11500	-56.39
11600	-58.28
11700	-56.23
11800	-51.09
11900	-50.95
12000	-54.55
